INDEX VERSION 1.127+/home/stradivarius/Desktop/SimpleServiceDiscovery/.metadata/.plugins/org.eclipse.jdt.core
755249921.index
2678499074.index
1415889960.index
3998410730.index
1385795345.index
214261100.index
3304807079.index
2932795486.index
1328306140.index
1373046632.index
4235339175.index
3804280862.index
4249896708.index
480675951.index
185368416.index
3617380629.index
383274882.index
2961682619.index
2193646876.index
1097517245.index
2479742866.index
1892304542.index
1245491889.index
2651139978.index
1164292439.index
739279552.index
1563357152.index
200788777.index
3731933220.index
2249954853.index
4014278497.index
826641449.index
2424576652.index
206822657.index
4074571468.index
1884934599.index
2754815961.index
2243699462.index
4120467753.index
2646025884.index
2427748608.index
1099134135.index
4289856991.index
1703597007.index
3530516999.index
3688679534.index
3526550620.index
2006221576.index
598413418.index
3356751023.index
463970231.index
4096669901.index
2291080982.index
1694762252.index
1338791817.index
3590881526.index
3717963622.index
109595650.index
3199776090.index
4165675677.index
3703589228.index
668694453.index
1105378196.index
2466899224.index
1113325134.index
916131907.index
1643878640.index
1331885860.index
734928554.index
1202482164.index
2282708677.index
2699322808.index
262273845.index
27576226.index
968840320.index
3021758173.index
3790218250.index
368809905.index
